Ingreso de los hogares
…
problems(concentrado)

## # A tibble: 446 x 5
##      row       col               expected actual
##    <int>     <chr>                  <chr>  <chr>
##  1  1406 reproducc no trailing characters    .08
##  2  1594 reproducc no trailing characters    .58
##  3  2023 reproducc no trailing characters    .21
##  4  2355 reproducc no trailing characters    .28
##  5  2462 reproducc no trailing characters    .21
##  6  4656     pesca no trailing characters    .03
##  7  4846 reproducc no trailing characters    .54
##  8  5669     pesca no trailing characters    .13
##  9  6611     pesca no trailing characters    .39
## 10  7247     pesca no trailing characters    .41
## # ... with 436 more rows, and 1 more variables: file <chr>
…
