Tarea 8: Ames Housing
…
## Warning in evalq(all(is.na(as.numeric(valor))), <environment>): NAs
## introduced by coercion

## Warning in evalq(all(is.na(as.numeric(valor))), <environment>): NAs
## introduced by coercion

## Warning in evalq(all(is.na(as.numeric(valor))), <environment>): NAs
## introduced by coercion

## Warning in evalq(all(is.na(as.numeric(valor))), <environment>): NAs
## introduced by coercion

## # A tibble: 80 x 4
##        variable na_conteo val_distintos categorica
##           <chr>     <int>         <int>      <lgl>
##  1       PoolQC      1453             4       TRUE
##  2  MiscFeature      1406             5       TRUE
##  3        Alley      1369             3       TRUE
##  4        Fence      1179             5       TRUE
##  5  FireplaceQu       690             6       TRUE
##  6  LotFrontage       259           111      FALSE
##  7   GarageCond        81             6       TRUE
##  8 GarageFinish        81             4       TRUE
##  9   GarageQual        81             6       TRUE
## 10   GarageType        81             7       TRUE
## 11  GarageYrBlt        81            98      FALSE
## 12 BsmtExposure        38             5       TRUE
## 13 BsmtFinType2        38             7       TRUE
## 14     BsmtCond        37             5       TRUE
## 15 BsmtFinType1        37             7       TRUE
## 16     BsmtQual        37             5       TRUE
## 17   MasVnrArea         8           328      FALSE
## 18   MasVnrType         8             5       TRUE
## 19   Electrical         1             6       TRUE
## 20     1stFlrSF         0           753      FALSE
## # ... with 60 more rows
…
